array (
  'id' => '22568-25734-09677',
  'order' => '22568-25630-0691',
  'status' => 'SALE',
  'card' => '411111****1111',
  'description' => 'Пакет BEST',
  'amount' => '7897.50',
  'currency' => 'UAH',
  'name' => '380961713414 TEST',
  'email' => 'test@gmail.com',
  'date' => '2018-05-07 08:42:53',
  'ip' => '91.217.58.41',
  'sign' => 'bf535b620fc0cce1b93bdab4486c0146',
  'ext1' => '300 USD',
  'ext2' => '380961713414',
)

array (
  'id' => '22568-30050-32547',
  'order' => '22568-29956-8117',
  'status' => 'SALE',
  'card' => '411111****1111',
  'description' => 'Пакет GOOD',
  'amount' => '5265.00',
  'currency' => 'UAH',
  'name' => '380961713414 еуые',
  'email' => 'test@gmail.com',
  'date' => '2018-05-07 08:50:05',
  'ip' => '91.217.58.41',
  'sign' => '14e70e0d119f68a1f238c3c7f024b39e',
  'ext1' => '200 USD',
  'ext2' => '380961713414',
)

array (
  'id' => '22568-35113-20297',
  'order' => '22568-35027-0499',
  'status' => 'SALE',
  'card' => '411111****1111',
  'description' => 'Пакет BEST',
  'amount' => '7897.50',
  'currency' => 'UAH',
  'name' => '380961713414 VBIF',
  'email' => 'test@gmail.com',
  'date' => '2018-05-07 08:58:31',
  'ip' => '91.217.58.41',
  'sign' => '6dd38ad9919954b0d7919d06f43e855c',
  'ext1' => '300 USD',
  'ext2' => '380961713414',
)

array (
)

array (
)

array (
  'id' => '22587-48621-05448',
  'order' => '22587-48481-1204',
  'status' => 'SALE',
  'rrn' => '000871802747',
  'approval_code' => '484028',
  'card' => '473118****9049',
  'description' => 'Пакет BEST',
  'amount' => '7869.00',
  'currency' => 'UAH',
  'name' => '380636175966 Алексей',
  'email' => 'lexpositive@gmail.com',
  'date' => '2018-05-09 14:07:42',
  'ip' => '176.38.46.67',
  'sign' => '81955e78bb807b6cc2a6e1624a394240',
  'ext1' => '300 USD',
  'ext2' => '380636175966',
)

array (
)

array (
  'id' => '22588-02592-75848',
  'order' => '22588-02391-2683',
  'status' => 'SALE',
  'card' => '411111****1111',
  'description' => 'Пакет BEST',
  'amount' => '7869.00',
  'currency' => 'UAH',
  'name' => '3800000000 Федоров',
  'email' => 'fedorov2025@gmail.com',
  'date' => '2018-05-09 15:37:39',
  'ip' => '46.211.108.199',
  'sign' => '157b5b278b23a930a28f4c8c8feecda4',
  'ext1' => '300 USD',
  'ext2' => '3800000000',
)

array (
  'id' => '22588-43474-67468',
  'order' => '22588-43356-4703',
  'status' => 'SALE',
  'card' => '411111****1111',
  'description' => 'Пакет GOOD',
  'amount' => '5246.00',
  'currency' => 'UAH',
  'name' => '380000000000 TEST',
  'email' => 'test@gmail.com',
  'date' => '2018-05-09 16:45:47',
  'ip' => '46.175.254.8',
  'sign' => '9dd3cf75d7b6af0b28e7bcae297ef87c',
  'ext1' => '200 USD',
  'ext2' => '380000000000',
)

array (
  'id' => '22604-33539-33118',
  'order' => '22604-33065-3829',
  'status' => 'SALE',
  'rrn' => '000873438114',
  'approval_code' => '914106',
  'card' => '537541****2207',
  'description' => 'Пакет GOOD',
  'amount' => '5240.00',
  'currency' => 'UAH',
  'name' => '380977885085 Виталий',
  'email' => 'belozor.v@gmail.com',
  'date' => '2018-05-11 12:55:53',
  'ip' => '46.211.81.114',
  'sign' => 'f8a61af84af11dda4d1c8763990a6070',
  'ext1' => '200 USD',
  'ext2' => '380977885085',
)

array (
  'id' => '22604-96815-09707',
  'order' => '22604-96574-4145',
  'status' => 'SALE',
  'rrn' => '000873528072',
  'approval_code' => '224692',
  'card' => '516874****3499',
  'description' => 'Пакет BEST',
  'amount' => '7860.00',
  'currency' => 'UAH',
  'name' => '380505941903 Вицко',
  'email' => 'vitsko777@gmail.com',
  'date' => '2018-05-11 14:41:21',
  'ip' => '93.74.62.219',
  'sign' => '75a99de0e550075d3d553f279131885b',
  'ext1' => '300 USD',
  'ext2' => '380505941903',
)

array (
  'id' => '22608-19593-61257',
  'order' => '22608-18147-0767',
  'status' => 'SALE',
  'rrn' => '000873799716',
  'approval_code' => '044149',
  'card' => '473121****1644',
  'description' => 'Пакет BEST',
  'amount' => '7860.00',
  'currency' => 'UAH',
  'name' => '380950000177 Евгений',
  'email' => 'eugene.adamenko@gmail.com',
  'date' => '2018-05-11 23:39:19',
  'ip' => '46.219.215.59',
  'sign' => '53dd876a79eb4a41e2ddbbb65acf65c1',
  'ext1' => '300 USD',
  'ext2' => '380950000177',
)

array (
)

array (
  'id' => '22608-19593-61257',
  'order' => '22608-18147-0767',
  'status' => 'SALE',
  'rrn' => '000873799716',
  'approval_code' => '044149',
  'card' => '473121****1644',
  'description' => 'Пакет BEST',
  'amount' => '7860.00',
  'currency' => 'UAH',
  'name' => '380950000177 Евгений',
  'email' => 'eugene.adamenko@gmail.com',
  'date' => '2018-05-11 23:39:19',
  'ip' => '46.219.215.59',
  'sign' => '53dd876a79eb4a41e2ddbbb65acf65c1',
  'ext1' => '300 USD',
  'ext2' => '380950000177',
)

array (
  'id' => '22604-96815-09707',
  'order' => '22604-96574-4145',
  'status' => 'SALE',
  'rrn' => '000873528072',
  'approval_code' => '224692',
  'card' => '516874****3499',
  'description' => 'Пакет BEST',
  'amount' => '7860.00',
  'currency' => 'UAH',
  'name' => '380505941903 Вицко',
  'email' => 'vitsko777@gmail.com',
  'date' => '2018-05-11 14:41:21',
  'ip' => '93.74.62.219',
  'sign' => '75a99de0e550075d3d553f279131885b',
  'ext1' => '300 USD',
  'ext2' => '380505941903',
)

array (
  'id' => '22604-33539-33118',
  'order' => '22604-33065-3829',
  'status' => 'SALE',
  'rrn' => '000873438114',
  'approval_code' => '914106',
  'card' => '537541****2207',
  'description' => 'Пакет GOOD',
  'amount' => '5240.00',
  'currency' => 'UAH',
  'name' => '380977885085 Виталий',
  'email' => 'belozor.v@gmail.com',
  'date' => '2018-05-11 12:55:53',
  'ip' => '46.211.81.114',
  'sign' => 'f8a61af84af11dda4d1c8763990a6070',
  'ext1' => '200 USD',
  'ext2' => '380977885085',
)

array (
  'id' => '22621-55580-83317',
  'order' => '22621-54967-4018',
  'status' => 'SALE',
  'rrn' => '000874862494',
  'approval_code' => '750153',
  'card' => '536354****9463',
  'description' => 'Пакет BEST',
  'amount' => '7857.75',
  'currency' => 'UAH',
  'name' => '380503602010 Вахтанг',
  'email' => 'exportimer@gmail.com',
  'date' => '2018-05-13 12:45:58',
  'ip' => '46.133.237.131',
  'sign' => 'd82c1936bd62828a67762334820ec751',
  'ext1' => '300 USD',
  'ext2' => '380503602010',
)

array (
  'id' => '22622-79324-68997',
  'order' => '22622-78428-6649',
  'status' => 'SALE',
  'rrn' => '000874995118',
  'approval_code' => '649126',
  'card' => '552324****1062',
  'description' => 'Пакет BEST',
  'amount' => '7857.75',
  'currency' => 'UAH',
  'name' => '380672356575 Виталий Дрозд',
  'email' => 'vitaliydrozd@gmail.com',
  'date' => '2018-05-13 16:12:12',
  'ip' => '193.194.107.253',
  'sign' => '03a977e34a22cf989f0c6abf97e51968',
  'ext1' => '300 USD',
  'ext2' => '380672356575',
)

array (
  'id' => '22628-20485-99508',
  'order' => '22628-20313-0350',
  'status' => 'SALE',
  'rrn' => '000875350173',
  'approval_code' => '832176',
  'card' => '536354****0059',
  'description' => 'Пакет BEST',
  'amount' => '7857.75',
  'currency' => 'UAH',
  'name' => '380932685446 Алексей',
  'email' => 'alexey@front.band',
  'date' => '2018-05-14 07:14:08',
  'ip' => '37.73.235.212',
  'sign' => '861a76be78ac8fd82339daaa6a2091aa',
  'ext1' => '300 USD',
  'ext2' => '380932685446',
)

array (
  'id' => '22628-26503-92198',
  'order' => '22628-26135-2043',
  'status' => 'SALE',
  'rrn' => '000875361797',
  'approval_code' => '529622',
  'card' => '537541****6956',
  'description' => 'Пакет BEST',
  'amount' => '7857.75',
  'currency' => 'UAH',
  'name' => '380502084415 Антон',
  'email' => 'tommy.poltev@gmail.com',
  'date' => '2018-05-14 07:24:10',
  'ip' => '62.80.188.147',
  'sign' => '68d804c6fcc3a1b87c5e01c45c288881',
  'ext1' => '300 USD',
  'ext2' => '380502084415',
)

array (
  'id' => '22629-65070-30037',
  'order' => '22629-64378-9548',
  'status' => 'SALE',
  'rrn' => '000875599171',
  'approval_code' => '524509',
  'card' => '546922****3782',
  'description' => 'Пакет GOOD',
  'amount' => '5238.50',
  'currency' => 'UAH',
  'name' => '79190374684 ARTEM',
  'email' => 'waldenbuch@mail.ru',
  'date' => '2018-05-14 11:15:07',
  'ip' => '212.174.109.83',
  'sign' => 'a58d25d47a7b82af9cefcddf9c72a376',
  'ext1' => '200 USD',
  'ext2' => '79190374684',
)

array (
  'id' => '22632-56996-18527',
  'order' => '22632-56642-2389',
  'status' => 'SALE',
  'rrn' => '000875992114',
  'approval_code' => '878869',
  'card' => '535129****8075',
  'description' => 'Пакет BEST',
  'amount' => '7857.75',
  'currency' => 'UAH',
  'name' => '380953546040 Оксана',
  'email' => 'on.sakva@gmail.com',
  'date' => '2018-05-14 19:21:39',
  'ip' => '46.149.84.129',
  'sign' => '9d855871052ec30c898be937a4fb824a',
  'ext1' => '300 USD',
  'ext2' => '380953546040',
)

array (
  'id' => '22633-17550-29477',
  'order' => '22633-17248-4015',
  'status' => 'SALE',
  'rrn' => '000876035765',
  'approval_code' => '581572',
  'card' => '516804****8513',
  'description' => 'Пакет BEST',
  'amount' => '7857.75',
  'currency' => 'UAH',
  'name' => '380504414284 ALEXEY RASHCHUPKIN',
  'email' => 'arashchupkin@gmail.com',
  'date' => '2018-05-14 21:02:35',
  'ip' => '93.171.242.171',
  'sign' => 'e6ace53eaa3a4341cc83b667fe3f2042',
  'ext1' => '300 USD',
  'ext2' => '380504414284',
)

array (
  'id' => '22648-06864-90698',
  'order' => '22648-06779-4103',
  'status' => 'SALE',
  'card' => '411111****1111',
  'description' => 'Пакет BEST',
  'amount' => '7861.50',
  'currency' => 'UAH',
  'name' => '380961713414 FEDOROV',
  'email' => 'fedorov2025@gmail.com',
  'date' => '2018-05-16 14:24:46',
  'ip' => '91.217.58.41',
  'sign' => '87f9153582efef5af747cc348f70f2cb',
  'ext1' => '300 USD',
  'ext2' => '380961713414',
)

array (
  'id' => '22648-88645-40528',
  'order' => '22648-86708-7581',
  'status' => 'SALE',
  'rrn' => '000877638971',
  'approval_code' => '466636',
  'card' => '552324****5148',
  'description' => 'Пакет BEST',
  'amount' => '7861.50',
  'currency' => 'UAH',
  'name' => '380680200080 Богдан',
  'email' => 'lapskiy2014@gmail.com',
  'date' => '2018-05-16 16:41:04',
  'ip' => '134.249.164.230',
  'sign' => 'bb48b2a5ab79ff56a99023ce7ab33630',
  'ext1' => '300 USD',
  'ext2' => '380680200080',
)

array (
  'id' => '22658-47183-15198',
  'order' => '22658-46737-9740',
  'status' => 'SALE',
  'rrn' => '000878672373',
  'approval_code' => '832485',
  'card' => '536354****7849',
  'description' => 'Пакет BEST',
  'amount' => '7869.00',
  'currency' => 'UAH',
  'name' => '380681273636 OLEG',
  'email' => 'avtoritetstudio@gmail.com',
  'date' => '2018-05-17 19:18:38',
  'ip' => '176.37.214.135',
  'sign' => '6a4c63640e03e6429fe3ef06a40e87fd',
  'ext1' => '300 USD',
  'ext2' => '380681273636',
)

array (
  'id' => '22658-96527-58568',
  'order' => '22658-96109-0838',
  'status' => 'SALE',
  'rrn' => '000878715590',
  'approval_code' => '647035',
  'card' => '411997****7778',
  'description' => 'Пакет BEST',
  'amount' => '7869.00',
  'currency' => 'UAH',
  'name' => '380504366930 Леся Левченко',
  'email' => 'llevchenko@soufflet.com',
  'date' => '2018-05-17 20:40:52',
  'ip' => '77.158.11.62',
  'sign' => 'a8be8334565820aef35dcbd6388b865d',
  'ext1' => '300 USD',
  'ext2' => '380504366930',
)

array (
  'id' => '22663-86294-07618',
  'order' => '22663-85921-6535',
  'status' => 'SALE',
  'rrn' => '000879097052',
  'approval_code' => '990372',
  'card' => '536354****8133',
  'description' => 'Пакет BEST',
  'amount' => '7854.00',
  'currency' => 'UAH',
  'name' => '380506307700 Александр',
  'email' => '1@rindine.ua',
  'date' => '2018-05-18 10:17:09',
  'ip' => '176.104.187.89',
  'sign' => '051ae50097b7179429a5f1202cf76b72',
  'ext1' => '300 USD',
  'ext2' => '380506307700',
)

array (
  'id' => '22672-72816-99998',
  'order' => '22672-69887-2407',
  'status' => 'SALE',
  'rrn' => '000879916124',
  'approval_code' => '211664',
  'card' => '545708****7667',
  'description' => 'Пакет BEST',
  'amount' => '7839.00',
  'currency' => 'UAH',
  'name' => '380632813920 Александр Бубенчиков',
  'email' => 'buben4ikov@gmail.com',
  'date' => '2018-05-19 10:54:41',
  'ip' => '188.163.20.105',
  'sign' => '9b874d45c2512724780b8d66ee3a0917',
  'ext1' => '300 USD',
  'ext2' => '380632813920',
)

array (
  'id' => '22691-99687-12378',
  'order' => '22691-99085-4148',
  'status' => 'SALE',
  'rrn' => '000881692383',
  'approval_code' => '845545',
  'card' => '537541****5064',
  'description' => 'Пакет BEST',
  'amount' => '7839.00',
  'currency' => 'UAH',
  'name' => '380636960007 Владимир',
  'email' => 'vovabagin7@gmail.com',
  'date' => '2018-05-21 16:26:08',
  'ip' => '193.138.145.142',
  'sign' => 'ce17bff46f4660156cab99785b749ea8',
  'ext1' => '300 USD',
  'ext2' => '380636960007',
)

array (
  'id' => '22696-75632-59668',
  'order' => '22696-75305-9806',
  'status' => 'SALE',
  'rrn' => '000881954411',
  'approval_code' => '769001',
  'card' => '467808****6442',
  'description' => 'Пакет BEST',
  'amount' => '7839.00',
  'currency' => 'UAH',
  'name' => '380982800000 Олександр',
  'email' => 'alex.doc7@gmail.com',
  'date' => '2018-05-22 05:39:23',
  'ip' => '188.191.36.33',
  'sign' => 'b2052e9105e3b8ff22084169930d2a9d',
  'ext1' => '300 USD',
  'ext2' => '380982800000',
)

array (
  'id' => '22697-46184-17998',
  'order' => '22697-45844-5802',
  'status' => 'SALE',
  'rrn' => '000882041370',
  'approval_code' => '812425',
  'card' => '535129****9471',
  'description' => 'Пакет BEST',
  'amount' => '7827.00',
  'currency' => 'UAH',
  'name' => '380677428743 Игорь Ляшенко',
  'email' => 'igor@lyashenko.ua',
  'date' => '2018-05-22 07:36:58',
  'ip' => '88.17.147.84',
  'sign' => '8f80307bb920782ec74c11d2e761fda1',
  'ext1' => '300 USD',
  'ext2' => '380677428743',
)

array (
  'id' => '22700-79018-46058',
  'order' => '22700-77829-0174',
  'status' => 'SALE',
  'rrn' => '000882537568',
  'approval_code' => '411830',
  'card' => '516798****9872',
  'description' => 'Пакет BEST',
  'amount' => '7827.00',
  'currency' => 'UAH',
  'name' => '380685956609 YULIA',
  'email' => 'y_logvina@ukr.net',
  'date' => '2018-05-22 16:51:41',
  'ip' => '94.45.134.106',
  'sign' => 'b318434fae1016b8406f33bbac98e250',
  'ext1' => '300 USD',
  'ext2' => '380685956609',
)

array (
  'id' => '22708-25866-88168',
  'order' => '22708-25758-7435',
  'status' => 'SALE',
  'rrn' => '000883248532',
  'approval_code' => '024299',
  'card' => '516874****5894',
  'description' => 'Пакет BEST',
  'amount' => '7813.50',
  'currency' => 'UAH',
  'name' => '380960244343 Галина',
  'email' => '0960244343ermak@gmail.com',
  'date' => '2018-05-23 13:36:26',
  'ip' => '46.211.2.169',
  'sign' => '9748a6610e429f72b7d1ee8ba8d41302',
  'ext1' => '300 USD',
  'ext2' => '380960244343',
)

array (
  'id' => '22710-40864-81378',
  'order' => '22710-19006-8902',
  'status' => 'SALE',
  'rrn' => '000883517915',
  'approval_code' => '294418',
  'card' => '528806****1597',
  'description' => 'Пакет BEST',
  'amount' => '7813.50',
  'currency' => 'UAH',
  'name' => '380952712710 Виктория Калмыкова',
  'email' => 'kittyha@ukr.net',
  'date' => '2018-05-23 19:34:46',
  'ip' => '46.149.87.62',
  'sign' => '4c24fa5c64b0d27de49285880e378934',
  'ext1' => '300 USD',
  'ext2' => '380952712710',
)

array (
  'id' => '22717-55350-77797',
  'order' => '22717-54866-0610',
  'status' => 'SALE',
  'rrn' => '000884165703',
  'approval_code' => '055150',
  'card' => '537541****0558',
  'description' => 'Пакет BEST',
  'amount' => '7824.75',
  'currency' => 'UAH',
  'name' => '380936463298 Михаил',
  'email' => 'mad.light.show@gmail.com',
  'date' => '2018-05-24 15:25:35',
  'ip' => '37.73.205.115',
  'sign' => '0143dce7292b8a0706316f69b42247a0',
  'ext1' => '300 USD',
  'ext2' => '380936463298',
)

array (
  'id' => '22724-08059-43847',
  'order' => '22724-01180-1954',
  'status' => 'SALE',
  'rrn' => '000884713659',
  'approval_code' => '597007',
  'card' => '536354****8514',
  'description' => 'Пакет BEST',
  'amount' => '7836.00',
  'currency' => 'UAH',
  'name' => '380953188353 Алёна',
  'email' => 'olena.ryzhenko@gmail.com',
  'date' => '2018-05-25 09:33:25',
  'ip' => '37.57.121.13',
  'sign' => 'a81109ffa99b4ecded54268e9144f08d',
  'ext1' => '300 USD',
  'ext2' => '380953188353',
)

array (
  'id' => '22736-34469-27857',
  'order' => '22736-33273-5267',
  'status' => 'SALE',
  'rrn' => '000885931854',
  'approval_code' => '229243',
  'card' => '414962****6428',
  'description' => 'Пакет GOOD',
  'amount' => '5229.50',
  'currency' => 'UAH',
  'name' => '380664620892 Ирина',
  'email' => 'maklakova@bigmir.net',
  'date' => '2018-05-26 19:37:26',
  'ip' => '91.218.195.32',
  'sign' => '6ee09a9d46f504c5a9c271345b499ec8',
  'ext1' => '200 USD',
  'ext2' => '380664620892',
)

array (
  'id' => '22739-34189-62737',
  'order' => '22739-32821-8563',
  'status' => 'SALE',
  'rrn' => '000886011289',
  'approval_code' => '132025',
  'card' => '521857****2850',
  'description' => 'Пакет BEST',
  'amount' => '7844.25',
  'currency' => 'UAH',
  'name' => '380973846720 Ольга Симсон',
  'email' => 'simson.o.e@gmail.com',
  'date' => '2018-05-27 03:56:58',
  'ip' => '94.179.19.204',
  'sign' => '62df8a84d8834c1a6ab17a7474a71488',
  'ext1' => '300 USD',
  'ext2' => '380973846720',
)

array (
  'id' => '22750-26802-92457',
  'order' => '22750-26086-2641',
  'status' => 'SALE',
  'rrn' => '000886934280',
  'approval_code' => '738067',
  'card' => '473121****3140',
  'description' => 'Пакет BEST',
  'amount' => '7844.25',
  'currency' => 'UAH',
  'name' => '+380503917814 Анастасия',
  'email' => 'levdikovan@rambler.ru',
  'date' => '2018-05-28 10:18:00',
  'ip' => '185.182.81.76',
  'sign' => '8c7accbc2b51375591d27b10eb297e62',
  'ext1' => '300 USD',
  'ext2' => '+380503917814',
)

array (
  'id' => '22753-93091-46507',
  'order' => '22753-92249-3346',
  'status' => 'SALE',
  'rrn' => '000887333037',
  'approval_code' => '05461G',
  'card' => '424631****2210',
  'description' => 'Пакет BEST',
  'amount' => '7844.25',
  'currency' => 'UAH',
  'name' => '17863436495 KOSTIANTYN SUICHMEZ',
  'email' => 'suychmez@gmail.com',
  'date' => '2018-05-28 20:28:29',
  'ip' => '76.26.34.198',
  'sign' => '88781fa86c111a340574fb52b13af562',
  'ext1' => '300 USD',
  'ext2' => '17863436495',
)

array (
  'id' => '22762-27886-95357',
  'order' => '22762-26632-5434',
  'status' => 'SALE',
  'rrn' => '000888172586',
  'approval_code' => '641263',
  'card' => '552324****3007',
  'description' => 'Пакет BEST',
  'amount' => '7844.25',
  'currency' => 'UAH',
  'name' => '380675650777 Ольга',
  'email' => 'molya7@gmail.com',
  'date' => '2018-05-29 19:39:48',
  'ip' => '77.120.242.125',
  'sign' => '881c1aeaed819658a21646caaa723dc3',
  'ext1' => '300 USD',
  'ext2' => '380675650777',
)

array (
  'id' => '22762-63398-28967',
  'order' => '22762-62875-0841',
  'status' => 'SALE',
  'rrn' => '000888201166',
  'approval_code' => '905368',
  'card' => '536354****8245',
  'description' => 'Пакет BEST',
  'amount' => '7844.25',
  'currency' => 'UAH',
  'name' => '380955797401 Алексей',
  'email' => 'alexmobile11@rambler.ru',
  'date' => '2018-05-29 20:38:59',
  'ip' => '188.191.237.22',
  'sign' => '7afc95414228e21217648bd7bdd44152',
  'ext1' => '300 USD',
  'ext2' => '380955797401',
)

array (
  'id' => '22766-16647-36267',
  'order' => '22766-15685-7538',
  'status' => 'SALE',
  'rrn' => '000888341560',
  'approval_code' => '419102',
  'card' => '462705****1320',
  'description' => 'Пакет BEST',
  'amount' => '7844.25',
  'currency' => 'UAH',
  'name' => '380676307404 Сергей',
  'email' => 'bednarskys@gmail.com',
  'date' => '2018-05-30 06:27:44',
  'ip' => '46.211.146.42',
  'sign' => '0c290c44388860cb92f54b4400262b71',
  'ext1' => '300 USD',
  'ext2' => '380676307404',
)

array (
  'id' => '22769-45950-76687',
  'order' => '22769-45803-9175',
  'status' => 'SALE',
  'rrn' => '000888849908',
  'approval_code' => '308674',
  'card' => '414949****7071',
  'description' => 'Пакет GOOD',
  'amount' => '5221.50',
  'currency' => 'UAH',
  'name' => '380509695392 Игорь',
  'email' => 'vertakov@gmail.com',
  'date' => '2018-05-30 15:36:35',
  'ip' => '193.111.50.92',
  'sign' => '4e44cfff04f9108b6e8e8d07581b2814',
  'ext1' => '200 USD',
  'ext2' => '380509695392',
)

array (
  'id' => '22771-69138-05297',
  'order' => '22771-68577-6477',
  'status' => 'SALE',
  'rrn' => '000889085443',
  'approval_code' => '453068',
  'card' => '516874****7129',
  'description' => 'Пакет GOOD',
  'amount' => '5221.50',
  'currency' => 'UAH',
  'name' => '380961144925 Илья',
  'email' => 'ilyasagaidak@gmail.com',
  'date' => '2018-05-30 21:48:33',
  'ip' => '46.211.126.100',
  'sign' => '6a1604c065835579460adced4ebfb06b',
  'ext1' => '200 USD',
  'ext2' => '380961144925',
)

array (
  'id' => '22777-31435-55597',
  'order' => '22777-00632-4531',
  'status' => 'SALE',
  'rrn' => '000889646484',
  'approval_code' => '767813',
  'card' => '400303****0783',
  'description' => 'Пакет BEST',
  'amount' => '7839.00',
  'currency' => 'UAH',
  'name' => '+77717096095 SVITLANA',
  'email' => 'snahorna@gmail.com',
  'date' => '2018-05-31 13:25:43',
  'ip' => '89.107.100.102',
  'sign' => 'c3414c2ce7d5dc86cd4fc8c6a813b7ac',
  'ext1' => '300 USD',
  'ext2' => '+77717096095',
)

array (
  'id' => '22779-31530-50708',
  'order' => '22779-26145-8062',
  'status' => 'SALE',
  'rrn' => '000889973476',
  'approval_code' => '149011',
  'card' => '473118****9603',
  'description' => 'Пакет GOOD',
  'amount' => '5226.00',
  'currency' => 'UAH',
  'name' => '380503554336 Роман',
  'email' => 'rshvets72@gmail.com',
  'date' => '2018-05-31 18:59:13',
  'ip' => '46.133.81.191',
  'sign' => '94fa78e61986ce5dca8233fbef80e50a',
  'ext1' => '200 USD',
  'ext2' => '380503554336',
)

array (
  'id' => '22782-82277-40868',
  'order' => '22782-81469-2572',
  'status' => 'SALE',
  'rrn' => '000890174406',
  'approval_code' => '746351',
  'card' => '532957****7694',
  'description' => 'Пакет BEST',
  'amount' => '7839.00',
  'currency' => 'UAH',
  'name' => '380676728888 Степан',
  'email' => 'stepan.zulynskyi@gmail.com',
  'date' => '2018-06-01 04:43:47',
  'ip' => '194.50.125.229',
  'sign' => '6791ad291a608372a6ad92e62bf38c2f',
  'ext1' => '300 USD',
  'ext2' => '380676728888',
)

array (
  'id' => '22783-15927-30918',
  'order' => '22783-15234-2603',
  'status' => 'SALE',
  'rrn' => '000890230494',
  'approval_code' => '438696',
  'card' => '411948****1775',
  'description' => 'Пакет BEST',
  'amount' => '7839.00',
  'currency' => 'UAH',
  'name' => '380503871297 Александр',
  'email' => 'olishchuk@gmail.com',
  'date' => '2018-06-01 05:39:52',
  'ip' => '46.133.227.102',
  'sign' => 'aec7ff45fbb4901b4a1c190bd38121ed',
  'ext1' => '300 USD',
  'ext2' => '380503871297',
)

array (
  'id' => '22783-22329-51257',
  'order' => '22783-21717-0633',
  'status' => 'SALE',
  'rrn' => '000890243310',
  'approval_code' => '072223',
  'card' => '516874****6430',
  'description' => 'Пакет BEST',
  'amount' => '7839.00',
  'currency' => 'UAH',
  'name' => '380503109851 Юрий',
  'email' => 'usib70@gmail.com',
  'date' => '2018-06-01 05:50:32',
  'ip' => '213.159.238.227',
  'sign' => 'c2770ec6ef7d575e4ad9734b51655f2e',
  'ext1' => '300 USD',
  'ext2' => '380503109851',
)

array (
  'id' => '22795-53412-66168',
  'order' => '22795-51583-5982',
  'status' => 'SALE',
  'rrn' => '000891694503',
  'approval_code' => '310127',
  'card' => '536354****5606',
  'description' => 'Пакет BEST',
  'amount' => '7835.25',
  'currency' => 'UAH',
  'name' => '380679212762 Денис Стамов',
  'email' => 'stamowww@gmail.com',
  'date' => '2018-06-02 16:02:21',
  'ip' => '46.211.108.23',
  'sign' => 'b31677038c99b17e49e69f5f32ce3f90',
  'ext1' => '300 USD',
  'ext2' => '380679212762',
)

array (
  'id' => '22796-76895-91658',
  'order' => '22796-75282-4797',
  'status' => 'SALE',
  'rrn' => '000891818696',
  'approval_code' => '617001',
  'card' => '467808****2412',
  'description' => 'Пакет BEST',
  'amount' => '7835.25',
  'currency' => 'UAH',
  'name' => '380504637123 Алла',
  'email' => 'alla.idobayeva@gmail.com',
  'date' => '2018-06-02 19:28:09',
  'ip' => '95.158.37.130',
  'sign' => 'c0d41060b205aeabb96f35d58c7fce41',
  'ext1' => '300 USD',
  'ext2' => '380504637123',
)

array (
  'id' => '22801-49875-07858',
  'order' => '22801-47694-6661',
  'status' => 'SALE',
  'rrn' => '000892050053',
  'approval_code' => '648175',
  'card' => '516874****8743',
  'description' => 'Пакет BEST',
  'amount' => '7835.25',
  'currency' => 'UAH',
  'name' => '380953071833 Евгений',
  'email' => 'ecomedics@gmail.com',
  'date' => '2018-06-03 08:36:27',
  'ip' => '194.6.231.247',
  'sign' => '251e3baf0720e802907ab0f63b503230',
  'ext1' => '300 USD',
  'ext2' => '380953071833',
)

array (
  'id' => '22813-25931-60098',
  'order' => '22813-24631-1258',
  'status' => 'SALE',
  'rrn' => '000893240785',
  'approval_code' => '806429',
  'card' => '516875****9781',
  'description' => 'Пакет BEST',
  'amount' => '7860.00',
  'currency' => 'UAH',
  'name' => '380679056313 Катерина',
  'email' => 'katrya.ivanova@gmail.com',
  'date' => '2018-06-04 17:16:33',
  'ip' => '93.72.195.109',
  'sign' => 'de92d5c1339df2a6c23fcfdecf35fd85',
  'ext1' => '300 USD',
  'ext2' => '380679056313',
)

array (
  'id' => '22814-45277-89008',
  'order' => '22814-44742-6613',
  'status' => 'SALE',
  'rrn' => '000893371840',
  'approval_code' => '387284',
  'card' => '516874****7150',
  'description' => 'Пакет BEST',
  'amount' => '7860.00',
  'currency' => 'UAH',
  'name' => '380971155442 Юлия',
  'email' => 'priorina0008@gmail.com',
  'date' => '2018-06-04 20:35:27',
  'ip' => '31.41.65.12',
  'sign' => '0d316e445b6bcaa8acdf16c3e4a63ebf',
  'ext1' => '300 USD',
  'ext2' => '380971155442',
)

array (
  'id' => '22818-32955-05848',
  'order' => '22818-32204-3606',
  'status' => 'SALE',
  'rrn' => '000893565218',
  'approval_code' => '296171',
  'card' => '552324****8516',
  'description' => 'Пакет BEST',
  'amount' => '7860.00',
  'currency' => 'UAH',
  'name' => '380‭ (67) 568 30 30‬ Марианна',
  'email' => 'mariannakhamaza78@gmail.com',
  'date' => '2018-06-05 07:21:35',
  'ip' => '188.0.81.194',
  'sign' => '58fcfb250426fb78bb2e68298adff5cf',
  'ext1' => '300 USD',
  'ext2' => '380‭ (67) 568 30 30‬',
)

array (
  'id' => '22826-75203-63158',
  'order' => '22826-72890-8591',
  'status' => 'SALE',
  'rrn' => '000894327916',
  'approval_code' => '578834',
  'card' => '533194****0338',
  'description' => 'Пакет BEST',
  'amount' => '7860.00',
  'currency' => 'UAH',
  'name' => '380938790327 Андрей',
  'email' => 'pam123@ukr.net',
  'date' => '2018-06-06 06:45:20',
  'ip' => '178.54.138.46',
  'sign' => '4b1c454af503391940ab62a4f8f9f233',
  'ext1' => '300 USD',
  'ext2' => '380938790327',
)

array (
  'id' => '22827-59211-40708',
  'order' => '22827-57838-5877',
  'status' => 'SALE',
  'rrn' => '000894462164',
  'approval_code' => '298105',
  'card' => '521857****1921',
  'description' => 'Пакет GOOD',
  'amount' => '5240.00',
  'currency' => 'UAH',
  'name' => '380964736848 Александр',
  'email' => 'alexandr.oleinik.1991@gmail.com',
  'date' => '2018-06-06 09:05:21',
  'ip' => '185.226.113.233',
  'sign' => '6f0c079678ccd295fb0049bd790e0c78',
  'ext1' => '200 USD',
  'ext2' => '380964736848',
)

array (
  'id' => '22828-84943-39758',
  'order' => '22828-84173-4855',
  'status' => 'SALE',
  'rrn' => '000894640566',
  'approval_code' => '186399',
  'card' => '516798****8374',
  'description' => 'Пакет BEST',
  'amount' => '7860.00',
  'currency' => 'UAH',
  'name' => '380979349749 Светлана',
  'email' => 'lsektor01@gmail.com',
  'date' => '2018-06-06 12:34:54',
  'ip' => '92.60.190.144',
  'sign' => 'b745be4054e132ad8fcce091cf6366c5',
  'ext1' => '300 USD',
  'ext2' => '380979349749',
)

array (
  'id' => '22830-26966-41788',
  'order' => '22830-26023-9561',
  'status' => 'SALE',
  'rrn' => '000894838972',
  'approval_code' => '261548',
  'card' => '487474****0852',
  'description' => 'Пакет BEST',
  'amount' => '7860.00',
  'currency' => 'UAH',
  'name' => '48512596949 григорий',
  'email' => 'grishaster@gmail.com',
  'date' => '2018-06-06 16:31:36',
  'ip' => '89.64.40.234',
  'sign' => 'ac3f852b150f12d9c801dbbe944157e5',
  'ext1' => '300 USD',
  'ext2' => '48512596949',
)

array (
  'id' => '22831-85918-48098',
  'order' => '22831-81902-1213',
  'status' => 'SALE',
  'rrn' => '000895025079',
  'approval_code' => '779434',
  'card' => '522119****6217',
  'description' => 'Пакет BEST',
  'amount' => '7860.00',
  'currency' => 'UAH',
  'name' => '+380981996323 Дмитрий',
  'email' => 'larsulrich777@hotmail.com',
  'date' => '2018-06-06 20:56:31',
  'ip' => '46.211.117.119',
  'sign' => '715bd443e136e5d774af60c512a1485c',
  'ext1' => '300 USD',
  'ext2' => '+380981996323',
)

array (
  'id' => '22844-10604-84668',
  'order' => '22844-10325-5639',
  'status' => 'SALE',
  'rrn' => '000896132817',
  'approval_code' => '788110',
  'card' => '414962****4656',
  'description' => 'Пакет BEST',
  'amount' => '7860.00',
  'currency' => 'UAH',
  'name' => '380674113366 Юлия',
  'email' => 'julia.ig.besedina@gmail.com',
  'date' => '2018-06-08 06:57:40',
  'ip' => '188.163.9.150',
  'sign' => '23b29fd4b50dd524c345ce6f857e7f6e',
  'ext1' => '300 USD',
  'ext2' => '380674113366',
)

array (
  'id' => '22845-13492-61418',
  'order' => '22845-09582-2794',
  'status' => 'SALE',
  'rrn' => '000896306914',
  'approval_code' => '500228',
  'card' => '531854****8181',
  'description' => 'Пакет BEST',
  'amount' => '7860.00',
  'currency' => 'UAH',
  'name' => '380503393273 Валерій',
  'email' => 'bohutskyy68@gmail.com',
  'date' => '2018-06-08 09:49:09',
  'ip' => '77.222.153.217',
  'sign' => '3bf0e09849d771758261b3735dcba509',
  'ext1' => '300 USD',
  'ext2' => '380503393273',
)

array (
  'id' => '22845-76228-32998',
  'order' => '22845-48166-3552',
  'status' => 'SALE',
  'rrn' => '000896409667',
  'approval_code' => '361241',
  'card' => '516875****5557',
  'description' => 'Пакет BEST',
  'amount' => '7860.00',
  'currency' => 'UAH',
  'name' => '380674843947 Наталия',
  'email' => 'areshenko@i.ua',
  'date' => '2018-06-08 11:33:42',
  'ip' => '195.138.93.198',
  'sign' => 'bcb8c138df377b95f89a91783aac031d',
  'ext1' => '300 USD',
  'ext2' => '380674843947',
)

array (
)

array (
)

array (
  'id' => '22863-56420-06528',
  'order' => '22863-56295-7246',
  'status' => 'SALE',
  'card' => '411111****1111',
  'description' => 'Пакет BEST',
  'amount' => '7860.00',
  'currency' => 'UAH',
  'name' => '+380961713414 TEST',
  'email' => 'fedorov2025@gmail.com',
  'date' => '2018-06-10 13:00:42',
  'ip' => '46.175.254.8',
  'sign' => 'ba9f3a86c3e5cba3e5600190c611138f',
  'ext1' => '300 USD',
  'ext2' => '+380961713414',
)

array (
  'id' => '22869-72264-15618',
  'order' => '22869-71135-3568',
  'status' => 'SALE',
  'rrn' => '000898381275',
  'approval_code' => '934016',
  'card' => '516874****5202',
  'description' => 'Пакет BEST',
  'amount' => '7860.00',
  'currency' => 'UAH',
  'name' => '380673230916 Иван',
  'email' => 'luka-dent@ukr.net',
  'date' => '2018-06-11 06:07:06',
  'ip' => '176.36.199.188',
  'sign' => '368eb7f98ca4cdd032a14bd5d2be216f',
  'ext1' => '300 USD',
  'ext2' => '380673230916',
)

array (
  'id' => '22873-07031-28398',
  'order' => '22873-06861-5485',
  'status' => 'SALE',
  'rrn' => '000898938898',
  'approval_code' => '851593',
  'card' => '414962****4243',
  'description' => 'Пакет GOOD',
  'amount' => '5240.00',
  'currency' => 'UAH',
  'name' => '380932837308 Константин',
  'email' => 'bemolodcom@gmail.com',
  'date' => '2018-06-11 15:25:03',
  'ip' => '178.214.210.66',
  'sign' => '2d4c5fca3a574bb5273366fafbd57fda',
  'ext1' => '200 USD',
  'ext2' => '380932837308',
)

array (
  'id' => '22873-09678-67668',
  'order' => '22873-08743-3134',
  'status' => 'SALE',
  'rrn' => '816218215966',
  'approval_code' => '419068',
  'card' => '436323****8793',
  'description' => 'Пакет BEST',
  'amount' => '7860.00',
  'currency' => 'UAH',
  'name' => '380975555515 Андрій',
  'email' => 'amaslo@ukr.net',
  'date' => '2018-06-11 15:29:27',
  'ip' => '92.60.188.197',
  'sign' => '459e1d0754f326edab8c983fcae87269',
  'ext1' => '300 USD',
  'ext2' => '380975555515',
)

array (
  'id' => '22873-30574-39678',
  'order' => '22873-29985-7728',
  'status' => 'SALE',
  'rrn' => '000898969764',
  'approval_code' => '656720',
  'card' => '516875****5537',
  'description' => 'Пакет BEST',
  'amount' => '7860.00',
  'currency' => 'UAH',
  'name' => '8067 768 1983 Наталья',
  'email' => 'olesiavip@gmail.com',
  'date' => '2018-06-11 16:04:17',
  'ip' => '178.92.255.184',
  'sign' => '54fb0d9e99ae5a0297f0608899afa394',
  'ext1' => '300 USD',
  'ext2' => '8067 768 1983',
)

array (
  'id' => '22879-97912-19678',
  'order' => '22879-96728-5379',
  'status' => 'SALE',
  'rrn' => '816313341600',
  'approval_code' => '388011',
  'card' => '522119****6891',
  'description' => 'Пакет BEST',
  'amount' => '7860.00',
  'currency' => 'UAH',
  'name' => '380674414152 Олег',
  'email' => 'okydria@gmail.com',
  'date' => '2018-06-12 10:36:31',
  'ip' => '193.111.49.94',
  'sign' => '772676a5df61228877a54ae0d7de4260',
  'ext1' => '300 USD',
  'ext2' => '380674414152',
)

array (
  'id' => '22881-96150-71818',
  'order' => '22881-93029-9275',
  'status' => 'SALE',
  'rrn' => '816319419151',
  'approval_code' => '190512',
  'card' => '410243****7222',
  'description' => 'Пакет BEST',
  'amount' => '7860.00',
  'currency' => 'UAH',
  'name' => '380676750920 коваль Татьяна',
  'email' => 'tbiokurs@fmail.com',
  'date' => '2018-06-12 16:06:55',
  'ip' => '91.232.241.146',
  'sign' => '93e7982c270d27ccb0b11243b82854f3',
  'ext1' => '300 USD',
  'ext2' => '380676750920',
)

array (
  'id' => '22889-15677-10268',
  'order' => '22889-15298-4699',
  'status' => 'SALE',
  'rrn' => '000900527732',
  'approval_code' => '156499',
  'card' => '516874****9442',
  'description' => 'Пакет GOOD',
  'amount' => '5230.00',
  'currency' => 'UAH',
  'name' => '380964779537 Денис',
  'email' => 'djdendi18@gmail.com',
  'date' => '2018-06-13 12:06:07',
  'ip' => '193.200.32.115',
  'sign' => 'bb379bfe1b3e18bccc7ac6912b2699b8',
  'ext1' => '200 USD',
  'ext2' => '380964779537',
)

array (
  'id' => '22900-15468-10018',
  'order' => '22900-14403-7910',
  'status' => 'SALE',
  'rrn' => '000901749343',
  'approval_code' => '393106',
  'card' => '536354****2722',
  'description' => 'Пакет BEST',
  'amount' => '7860.00',
  'currency' => 'UAH',
  'name' => '380679989523 Эдуард',
  'email' => 'ed23@ukr.net',
  'date' => '2018-06-14 18:39:06',
  'ip' => '46.63.77.9',
  'sign' => '26a13a7ee0726ad9478deaffd305a169',
  'ext1' => '300 USD',
  'ext2' => '380679989523',
)

array (
  'id' => '22907-27176-47148',
  'order' => '22907-25531-2184',
  'status' => 'SALE',
  'rrn' => '816617012859',
  'approval_code' => '52640Z',
  'card' => '541733****6296',
  'description' => 'Пакет BEST',
  'amount' => '7890.00',
  'currency' => 'UAH',
  'name' => '+380674478724 Наталия',
  'email' => 'prokopchukart@gmail.com',
  'date' => '2018-06-15 14:25:17',
  'ip' => '46.174.161.246',
  'sign' => '2fab41910a9bd9b24843952f0ccac244',
  'ext1' => '300 USD',
  'ext2' => '+380674478724',
)

array (
  'id' => '22908-50732-77088',
  'order' => '22908-49845-7800',
  'status' => 'SALE',
  'rrn' => '816620047774',
  'approval_code' => '277193',
  'card' => '546955****1605',
  'description' => 'Пакет BEST',
  'amount' => '7890.00',
  'currency' => 'UAH',
  'name' => '79522182188 Ростислав',
  'email' => 'rostislavpavlov777@gmail.com',
  'date' => '2018-06-15 17:51:13',
  'ip' => '176.59.22.111',
  'sign' => 'b6fbbc7250660413d1ca30c2c288b8ec',
  'ext1' => '300 USD',
  'ext2' => '79522182188',
)

array (
  'id' => '22915-22272-13328',
  'order' => '22915-22141-2546',
  'status' => 'SALE',
  'card' => '411111****1111',
  'description' => 'Пакет BEST',
  'amount' => '7890.00',
  'currency' => 'UAH',
  'name' => '380961713414 TEST',
  'email' => 'fedorov2025@gmail.com',
  'date' => '2018-06-16 12:30:27',
  'ip' => '46.175.254.8',
  'sign' => 'c93b9db52bec234dd01423a7d1ebfb45',
  'ext1' => '300 USD',
  'ext2' => '380961713414',
)

array (
  'id' => '22932-81086-52518',
  'order' => '22932-79907-2079',
  'status' => 'SALE',
  'rrn' => '000904593865',
  'approval_code' => '138041',
  'card' => '521857****5062',
  'description' => 'Пакет BEST',
  'amount' => '7905.00',
  'currency' => 'UAH',
  'name' => '380674302230 Юрий',
  'email' => 'yura.makedon@gmail.com',
  'date' => '2018-06-18 13:21:48',
  'ip' => '77.121.112.153',
  'sign' => '79748f8ebbc5a8ed53a6b1d0bf56bca0',
  'ext1' => '300 USD',
  'ext2' => '380674302230',
)

array (
  'id' => '22937-53207-37818',
  'order' => '22937-52527-5748',
  'status' => 'SALE',
  'rrn' => '817005583923',
  'approval_code' => '278800',
  'card' => '427955****4428',
  'description' => 'Пакет GOOD',
  'amount' => '5270.00',
  'currency' => 'UAH',
  'name' => '79533703715 Владимир',
  'email' => 'girtek@mail.ru',
  'date' => '2018-06-19 02:28:40',
  'ip' => '92.100.95.6',
  'sign' => '5ecec5e2ae2e98edea5d95321c53c9a7',
  'ext1' => '200 USD',
  'ext2' => '79533703715',
)

array (
  'id' => '22942-92933-28058',
  'order' => '22942-91649-6494',
  'status' => 'SALE',
  'rrn' => '817020750525',
  'approval_code' => '955470',
  'card' => '522864****4752',
  'description' => 'Пакет BEST',
  'amount' => '7905.00',
  'currency' => 'UAH',
  'name' => '380672095549 ELINA',
  'email' => 'elina.cherkinskaya@gmail.com',
  'date' => '2018-06-19 17:28:13',
  'ip' => '95.67.90.149',
  'sign' => '1504729110ea08c315255b9b1dca2c58',
  'ext1' => '300 USD',
  'ext2' => '380672095549',
)

array (
  'id' => '22981-55567-83017',
  'order' => '22981-54286-0497',
  'status' => 'SALE',
  'rrn' => '817507526624',
  'approval_code' => '06186B',
  'card' => '535128****0027',
  'description' => 'Пакет BEST',
  'amount' => '7920.00',
  'currency' => 'UAH',
  'name' => '0674660531 Василий',
  'email' => 'malashinav@gmail.clm',
  'date' => '2018-06-24 04:45:56',
  'ip' => '94.158.95.254',
  'sign' => '86be3adb07ed0e0f2de81401801e360e',
  'ext1' => '300 USD',
  'ext2' => '0674660531',
)

array (
  'id' => '22983-78914-86377',
  'order' => '22983-78214-2998',
  'status' => 'SALE',
  'rrn' => '817513587883',
  'approval_code' => '969180',
  'card' => '537541****7591',
  'description' => 'Пакет GOOD',
  'amount' => '5280.00',
  'currency' => 'UAH',
  'name' => '380964227722 Александр',
  'email' => 'alex.bilytskyi@gmail.com',
  'date' => '2018-06-24 10:58:11',
  'ip' => '91.193.131.103',
  'sign' => 'c6d627351d9af38899b552a21fb8c49f',
  'ext1' => '200 USD',
  'ext2' => '380964227722',
)

array (
  'id' => '23010-08262-81917',
  'order' => '23010-07855-9216',
  'status' => 'SALE',
  'rrn' => '817815186241',
  'approval_code' => '764245',
  'card' => '537541****2365',
  'description' => 'Пакет BEST',
  'amount' => '7890.00',
  'currency' => 'UAH',
  'name' => '380936601070 Святослав',
  'email' => 'hello@karabeen.com',
  'date' => '2018-06-27 12:00:26',
  'ip' => '109.175.143.49',
  'sign' => '97f1e352ed53ec58771f809327665d73',
  'ext1' => '300 USD',
  'ext2' => '380936601070',
)

array (
  'id' => '23027-30413-30787',
  'order' => '23027-29806-5788',
  'status' => 'SALE',
  'rrn' => '000914164777',
  'approval_code' => '020049',
  'card' => '516875****1708',
  'description' => 'Пакет BEST',
  'amount' => '7890.00',
  'currency' => 'UAH',
  'name' => '380973765392 ANASTASIA',
  'email' => 'anbondarenko@hotmail.com',
  'date' => '2018-06-29 11:50:41',
  'ip' => '46.119.67.34',
  'sign' => 'c1c4ed90bca36205c1fe1ad2e43c6303',
  'ext1' => '300 USD',
  'ext2' => '380973765392',
)

array (
  'id' => '23035-99973-20167',
  'order' => '23035-99323-6054',
  'status' => 'SALE',
  'rrn' => '000914969315',
  'approval_code' => '792042',
  'card' => '516875****5482',
  'description' => 'Пакет GOOD',
  'amount' => '5260.00',
  'currency' => 'UAH',
  'name' => '380677270301 Иванна',
  'email' => 'vitkinash23@gmail.com',
  'date' => '2018-06-30 11:59:57',
  'ip' => '134.249.169.213',
  'sign' => 'e251f179a40f0cfbb20244e7a5ce625e',
  'ext1' => '200 USD',
  'ext2' => '380677270301',
)

array (
  'id' => '23070-66477-72427',
  'order' => '23070-64436-7586',
  'status' => 'SALE',
  'rrn' => '000918714681',
  'approval_code' => '749046',
  'card' => '473118****3283',
  'description' => 'Пакет BEST',
  'amount' => '7905.00',
  'currency' => 'UAH',
  'name' => '380954570747 Иван',
  'email' => 'impulse@ukr.net',
  'date' => '2018-07-04 12:17:27',
  'ip' => '188.239.29.155',
  'sign' => 'de8a39d3524201c63f03c0c1994852de',
  'ext1' => '300 USD',
  'ext2' => '380954570747',
)

array (
  'id' => '23071-84531-06107',
  'order' => '23071-84089-0730',
  'status' => 'SALE',
  'rrn' => '818518544498',
  'approval_code' => '713482',
  'card' => '437435****1653',
  'description' => 'Пакет BEST',
  'amount' => '7905.00',
  'currency' => 'UAH',
  'name' => '380958533827 Руслан',
  'email' => 'bcgroupconsult@gmail.com',
  'date' => '2018-07-04 15:34:13',
  'ip' => '178.136.192.41',
  'sign' => '8b9d3ce6c08752cf619e28717abd8370',
  'ext1' => '300 USD',
  'ext2' => '380958533827',
)

array (
  'id' => '23131-94851-32477',
  'order' => '23131-77883-5340',
  'status' => 'SALE',
  'rrn' => '000924801364',
  'approval_code' => '449296',
  'card' => '516875****5602',
  'description' => 'Пакет BEST',
  'amount' => '7905.00',
  'currency' => 'UAH',
  'name' => '380979911856 Сергей',
  'email' => 'laboratoriamebeli@gmail.com',
  'date' => '2018-07-11 14:31:25',
  'ip' => '188.163.111.24',
  'sign' => '2e4ed41e359f9538520133dd5243328b',
  'ext1' => '300 USD',
  'ext2' => '380979911856',
)

array (
  'id' => '23164-18231-87947',
  'order' => '23164-17149-9058',
  'status' => 'SALE',
  'rrn' => '000927778385',
  'approval_code' => '210493',
  'card' => '536354****4409',
  'description' => 'Пакет BEST',
  'amount' => '7905.00',
  'currency' => 'UAH',
  'name' => '380507696324 Анастасия',
  'email' => 'anastasia.svets@yahoo.com',
  'date' => '2018-07-15 08:03:43',
  'ip' => '46.133.20.51',
  'sign' => '3ad38b51351fc938473ac10ddcda5126',
  'ext1' => '300 USD',
  'ext2' => '380507696324',
)

array (
  'id' => '23172-11658-91587',
  'order' => '23172-10272-8589',
  'status' => 'SALE',
  'rrn' => '000928434565',
  'approval_code' => '264151',
  'card' => '473121****1737',
  'description' => 'Пакет GOOD',
  'amount' => '5270.00',
  'currency' => 'UAH',
  'name' => '380962010110 Юлия',
  'email' => 'juliagurskajacom@gmail.com',
  'date' => '2018-07-16 06:06:05',
  'ip' => '46.211.153.166',
  'sign' => '3a4c960e894fb6e8c9e63fcccc3b5d25',
  'ext1' => '200 USD',
  'ext2' => '380962010110',
)

array (
  'id' => '23172-36037-49717',
  'order' => '23172-34190-9810',
  'status' => 'SALE',
  'rrn' => '819709544635',
  'approval_code' => '034602',
  'card' => '420767****8411',
  'description' => 'Пакет BEST',
  'amount' => '7905.00',
  'currency' => 'UAH',
  'name' => '380964585720 ROMAN MUKHA',
  'email' => 'ronald.flye.m@gmail.com',
  'date' => '2018-07-16 06:46:43',
  'ip' => '72.227.215.42',
  'sign' => '296338c26fd880ee52b3952eb19aca8b',
  'ext1' => '300 USD',
  'ext2' => '380964585720',
)

array (
  'id' => '23172-69139-75187',
  'order' => '23172-68418-4072',
  'status' => 'SALE',
  'rrn' => '819710562215',
  'approval_code' => '760716',
  'card' => '402961****6419',
  'description' => 'Пакет GOOD',
  'amount' => '5270.00',
  'currency' => 'UAH',
  'name' => '380976857993 Андрей',
  'email' => 'andre_fine@ukr.net',
  'date' => '2018-07-16 07:41:53',
  'ip' => '194.48.209.230',
  'sign' => '9175770a3fa14a36f6b0173012e329b5',
  'ext1' => '200 USD',
  'ext2' => '380976857993',
)

array (
  'id' => '23278-91452-54237',
  'order' => '23278-90082-8769',
  'status' => 'SALE',
  'rrn' => '820917863294',
  'approval_code' => '100004',
  'card' => '537541****3334',
  'description' => 'Пакет BEST',
  'amount' => '8070.00',
  'currency' => 'UAH',
  'name' => '380999724696 Надежда',
  'email' => 'nadezhdababenko@gmail.com',
  'date' => '2018-07-28 14:45:45',
  'ip' => '46.133.11.50',
  'sign' => '5ed54fa5148c977b9a54682d2c2c4a94',
  'ext1' => '300 USD',
  'ext2' => '380999724696',
)

array (
  'id' => '23318-19539-63078',
  'order' => '23318-19166-2137',
  'status' => 'SALE',
  'rrn' => '000942972956',
  'approval_code' => '113744',
  'card' => '521857****8790',
  'description' => 'Пакет BEST',
  'amount' => '8145.00',
  'currency' => 'UAH',
  'name' => '380675051303 Кирилл',
  'email' => 'krudnev@gmail.com',
  'date' => '2018-08-02 03:52:33',
  'ip' => '24.43.220.81',
  'sign' => '3916f9c7772669f7327341d38c5aacb9',
  'ext1' => '300 USD',
  'ext2' => '380675051303',
)

array (
  'id' => '23383-42000-51847',
  'order' => '23383-37520-4705',
  'status' => 'SALE',
  'rrn' => '000949413986',
  'approval_code' => '038004',
  'card' => '473118****2954',
  'description' => 'Пакет BEST',
  'amount' => '8190.00',
  'currency' => 'UAH',
  'name' => '380503265850 Светлана Калдина',
  'email' => 'svetvaleriivna@gmail.com',
  'date' => '2018-08-09 17:03:20',
  'ip' => '62.216.57.97',
  'sign' => 'ee075d3e94dcc16d7c52c62159234884',
  'ext1' => '300 USD',
  'ext2' => '380503265850',
)

array (
  'id' => '23547-39390-99978',
  'order' => '23547-38991-3511',
  'status' => 'SALE',
  'rrn' => '000965405892',
  'approval_code' => '494871',
  'card' => '516875****6751',
  'description' => 'Пакет BEST',
  'amount' => '8460.00',
  'currency' => 'UAH',
  'name' => '375447034903 Александр',
  'email' => 'kucheravy.archi@gmail.com',
  'date' => '2018-08-28 16:32:19',
  'ip' => '93.85.178.211',
  'sign' => '5c2d509a503e79c87277d9d631c849e9',
  'ext1' => '300 USD',
  'ext2' => '375447034903',
)

array (
  'id' => '23762-24932-55758',
  'order' => '23762-24618-8851',
  'status' => 'SALE',
  'rrn' => '000988088866',
  'approval_code' => '545253',
  'card' => '414962****6208',
  'description' => 'Пакет BEST',
  'amount' => '8460.00',
  'currency' => 'UAH',
  'name' => '380674320299 Белых Андрей',
  'email' => 'belykh.andrey@gmail.com',
  'date' => '2018-09-22 13:21:33',
  'ip' => '79.143.47.158',
  'sign' => '3831ad83c6979e2f39b923236263a705',
  'ext1' => '300 USD',
  'ext2' => '380674320299',
)

