<svg width="400" height="104" viewBox="0 0 400 104" fill="none" xmlns="http://www.w3.org/2000/svg">
<path d="M44.7209 57.7229C36.713 57.7229 30.1836 51.1859 30.1836 43.1688C30.1836 35.1517 36.713 28.6147 44.7209 28.6147C48.7864 28.6147 52.4823 30.2182 55.1926 33.1783L51.4967 36.7551C49.6487 34.9051 47.308 33.795 44.7209 33.795C39.5466 33.795 35.3579 37.9885 35.3579 43.1688C35.3579 48.3491 39.5466 52.5426 44.7209 52.5426C47.308 52.5426 49.7719 51.5559 51.4967 49.5825L55.1926 53.1593C52.4823 56.1194 48.7864 57.7229 44.7209 57.7229ZM127.017 57.7229C119.009 57.7229 112.479 51.1859 112.479 43.1688C112.479 35.1517 119.009 28.6147 127.017 28.6147C131.082 28.6147 134.778 30.2182 137.488 33.1783L133.792 36.7551C131.944 34.9051 129.604 33.795 127.017 33.795C121.842 33.795 117.654 37.9885 117.654 43.1688C117.654 48.3491 121.842 52.5426 127.017 52.5426C129.604 52.5426 132.068 51.5559 133.792 49.5825L137.488 53.1593C134.778 56.1194 131.082 57.7229 127.017 57.7229Z" fill="white"/>
<path d="M147.59 29.4783L154.489 44.7724L161.142 29.4783H166.686L156.953 50.816C156.46 51.8028 156.091 52.6661 155.475 53.4062C154.982 54.1462 154.366 54.8862 153.627 55.5029C152.888 56.1196 152.149 56.613 151.286 56.8597C150.424 57.2297 149.315 57.353 148.206 57.353C147.344 57.353 146.605 57.2297 145.989 57.1064C145.373 56.983 144.88 56.8597 144.51 56.613L143.402 55.9963L142.662 55.3796L145.619 51.6794C145.865 51.9261 146.358 52.2961 146.851 52.5428C147.344 52.7895 147.837 52.9128 148.576 52.9128C149.315 52.9128 149.931 52.6661 150.424 52.2961C150.917 51.9261 151.409 51.3094 151.902 50.446L142.046 29.355H147.59V29.4783ZM193.296 29.4783V56.7363H188.369V33.7952H176.788V56.7363H171.614V29.4783H193.296ZM208.326 52.2961H221.632V56.7363H203.399V29.4783H221.139V33.7952H208.326V40.5789H220.277V44.7724H208.326V52.2961ZM230.379 29.4783H239.495C240.974 29.4783 242.329 29.6017 243.561 29.9717C244.793 30.2184 245.902 30.7117 246.764 31.3284C247.626 31.9451 248.366 32.8085 248.858 33.7952C249.351 34.7819 249.597 36.0153 249.597 37.372C249.597 38.8521 249.351 40.0855 248.858 41.0722C248.366 42.0589 247.626 42.9223 246.641 43.539C245.778 44.1557 244.67 44.6491 243.438 45.0191C242.206 45.2658 240.85 45.5124 239.495 45.5124H235.553V56.7363H230.379V29.4783ZM235.43 41.4422H239.003C240.604 41.4422 241.959 41.1956 242.945 40.5789C243.93 39.9622 244.546 38.9755 244.546 37.4954C244.546 36.7553 244.423 36.1386 244.177 35.6453C243.93 35.1519 243.561 34.7819 243.068 34.5352C242.575 34.2886 242.082 34.0419 241.343 33.9185C240.727 33.7952 239.988 33.6719 239.249 33.6719H235.676V41.4422H235.43ZM256.373 56.7363H250.953L261.917 29.4783H267.091L278.179 56.7363H272.635L264.504 36.262L256.373 56.7363ZM288.897 29.4783V40.8255H293.456C293.702 38.9755 294.195 37.372 294.934 35.892C295.796 34.4119 296.782 33.1785 298.014 32.0684C299.246 30.9584 300.724 30.2184 302.449 29.6017C304.051 28.985 305.899 28.7383 307.87 28.7383C309.964 28.7383 311.935 29.1083 313.66 29.725C315.385 30.465 316.986 31.3284 318.218 32.6851C319.573 33.9185 320.559 35.3986 321.298 37.1254C322.037 38.8521 322.407 40.8255 322.407 42.9223C322.407 45.0191 322.037 46.9925 321.298 48.7193C320.559 50.446 319.573 52.0494 318.218 53.2828C316.863 54.5162 315.385 55.5029 313.66 56.243C311.935 56.983 309.964 57.353 307.87 57.353C305.899 57.353 304.174 57.1064 302.572 56.4897C300.971 55.873 299.492 55.0096 298.26 54.0229C297.028 52.9128 295.92 51.6794 295.18 50.1993C294.318 48.7193 293.825 47.1159 293.579 45.2658H289.021V56.7363H283.969V29.4783H288.897ZM298.63 43.0457C298.63 44.4024 298.876 45.7591 299.246 46.8692C299.739 48.1026 300.355 49.0893 301.094 49.9527C301.833 50.816 302.819 51.5561 303.927 52.0494C305.036 52.5428 306.268 52.7895 307.747 52.7895C309.225 52.7895 310.334 52.5428 311.566 52.0494C312.674 51.5561 313.66 50.816 314.522 49.9527C315.262 49.0893 315.878 47.9792 316.37 46.8692C316.863 45.6358 316.986 44.4024 316.986 43.0457C316.986 41.6889 316.74 40.4555 316.37 39.2221C315.878 37.9887 315.262 37.002 314.522 36.1386C313.783 35.2753 312.798 34.5352 311.566 34.0419C310.457 33.5485 309.225 33.3018 307.747 33.3018C306.268 33.3018 305.159 33.5485 303.927 34.0419C302.819 34.5352 301.833 35.2753 301.094 36.1386C300.355 37.002 299.739 37.9887 299.246 39.2221C298.876 40.4555 298.63 41.6889 298.63 43.0457Z" fill="white"/>
<path d="M328.197 56.736V62.0396H323.885V52.2958H328.074L336.698 29.478H341.626L350.126 52.2958H354.438V62.0396H350.126V56.736H328.197ZM333.125 52.2958H344.706L338.915 35.0283L333.125 52.2958ZM362.939 49.5824L376.121 29.478H381.911V56.736H376.86V36.6317H376.737L363.678 56.736H357.764V29.478H362.816V49.5824H362.939Z" fill="white"/>
<path d="M43.6118 0L50.5108 18.2542L65.5409 5.79695L62.2146 25.0379L81.4333 21.8311L69.1136 36.8785L87.3468 43.6622L69.1136 50.5692L81.4333 65.6166L62.2146 62.2864L65.5409 81.5274L50.5108 69.1934L43.6118 87.4477L36.8359 69.1934L9.36298 103.112L25.009 62.2864L5.79027 65.6166L18.2332 50.5692L0 43.6622L18.2332 36.8785L5.79027 21.8311L25.009 25.0379L21.8059 5.79695L36.8359 18.2542L43.6118 0Z" fill="#C9002C"/>
<path d="M44.7209 57.5993C36.713 57.5993 30.1836 51.0623 30.1836 43.0453C30.1836 35.0282 36.713 28.4912 44.7209 28.4912C48.7864 28.4912 52.4823 30.0946 55.1926 33.0548L51.4967 36.6316C49.6487 34.7815 47.308 33.6715 44.7209 33.6715C39.5466 33.6715 35.3579 37.865 35.3579 43.0453C35.3579 48.2255 39.5466 52.4191 44.7209 52.4191C47.308 52.4191 49.7719 51.4323 51.4967 49.4589L55.1926 53.0358C52.4823 55.9959 48.7864 57.5993 44.7209 57.5993Z" fill="white"/>
<path d="M387.785 32.0685H389.027V26.1679H391.166V25.0825H385.646V26.1679H387.785V32.0685Z" fill="white"/>
<path d="M392.47 32.0685H393.653V26.4541H393.673L395.762 32.0685H396.629L398.748 26.4541H398.768V32.0685H400V25.0825H398.049L396.255 30.0457H396.225L394.412 25.0825H392.47V32.0685Z" fill="white"/>
</svg>
